%YAML 1.1
%TAG !u! tag:unity3d.com,2011:
--- !u!78 &1
TagManager:
  serializedVersion: 2
  tags:
  - Island
  - Limit
  - Corner
  - Food Shredder
  - GamePiece
  - Food
  - PowerUpCooldown1
  - PowerUpCooldown2
  - PowerUpCooldown3
  - PowerUpCooldown4
  - Score
  - PlayerOne
  - PlayerTwo
  - PlayerThree
  - PlayerFour
  - Heart-Container
  - LookAt
  layers:
  - Default
  - TransparentFX
  - Ignore Raycast
  - 
  - Water
  - UI
  - 
  - 
  - 
  - 
  - 
  - 
  - 
  - 
  - 
  - 
  - 
  - 
  - 
  - 
  - 
  - 
  - 
  - 
  - 
  - 
  - 
  - 
  - 
  - 
  - 
  - 
  m_SortingLayers:
  - name: Default
    uniqueID: 0
    locked: 0
